<svg xmlns="http://www.w3.org/2000/svg" width="77" height="77" viewBox="0 0 77 77">
  <g id="Grupo_344" data-name="Grupo 344" transform="translate(1 1)">
    <path id="Caminho_312" data-name="Caminho 312" d="M37.5,0h0A37.5,37.5,0,1,0,75,37.5,37.537,37.537,0,0,0,37.5,0Zm0,70.021A32.521,32.521,0,1,1,70.021,37.5,32.483,32.483,0,0,1,37.5,70.021Z" fill="#676767" stroke="#e9e9e9" stroke-linejoin="bevel" stroke-width="2"/>
    <path id="Caminho_313" data-name="Caminho 313" d="M418.618,520.355l.567-2.956a.394.394,0,0,0-.079-.314.368.368,0,0,0-.284-.135h-3.8a.37.37,0,0,0-.284.135.4.4,0,0,0-.079.314l.567,2.956a.426.426,0,0,0,.37.3l-.345,2.12q.764,1.651,1.665,3.235.909-1.573,1.678-3.233l-.345-2.122A.426.426,0,0,0,418.618,520.355Z" transform="translate(-379.421 -475.153)" fill="#676767"/>
    <path id="Caminho_314" data-name="Caminho 314" d="M360.82,475.85Z" transform="translate(-329.044 -436.691)" fill="#676767" stroke="#e9e9e9" stroke-linejoin="bevel" stroke-width="1"/>
    <path id="Caminho_315" data-name="Caminho 315" d="M214.61,478.967a58.919,58.919,0,0,0-6.877-3.117,45.148,45.148,0,0,1-5.725,14.351,45.138,45.138,0,0,1-5.724-14.351,58.966,58.966,0,0,0-6.877,3.116,8.54,8.54,0,0,0-3.144,3.847A13.894,13.894,0,0,0,185,488.348a.577.577,0,0,0,.334.513c4.593,2.09,13.02,2.338,16.674,2.338s12.082-.248,16.674-2.338a.577.577,0,0,0,.334-.513,13.883,13.883,0,0,0-1.264-5.535A8.541,8.541,0,0,0,214.61,478.967Z" transform="translate(-164.509 -436.691)" fill="#676767" stroke="#e9e9e9" stroke-linejoin="bevel" stroke-width="2"/>
    <path id="Caminho_316" data-name="Caminho 316" d="M331.125,200.193c.779,2.875,3.032,5.033,5.766,5.113,2.734-.08,4.983-2.239,5.761-5.113a6.48,6.48,0,0,0,2-4.359,3.674,3.674,0,0,0-.174-1.372,1.15,1.15,0,0,0-.393-.524.9.9,0,0,0-.137-.067,11.481,11.481,0,0,0-.037-2.637,3.88,3.88,0,0,0-1.2-2.637,3.29,3.29,0,0,0-2.239-2.827,9.351,9.351,0,0,0-3.576-.759h0c-3.417.046-5.263,1.575-6.149,3.11a6.69,6.69,0,0,0-.872,3.087c0,.013-.037,2.664-.037,2.664a.892.892,0,0,0-.136.067,1.152,1.152,0,0,0-.393.524,3.676,3.676,0,0,0-.174,1.372A6.476,6.476,0,0,0,331.125,200.193Z" transform="translate(-299.388 -164.518)" fill="#676767" stroke="#e9e9e9" stroke-linejoin="bevel" stroke-width="2"/>
  </g>
</svg>
