[
  {
    "nome_arquivo": "home",
    "arquivos": [
      "node_modules/swiper/css/swiper.css"
    ]
  },
  {
    "nome_arquivo": "single",
    "arquivos": [
      "build/single.css"
    ]
  },
  {
    "nome_arquivo": "custom",
    "arquivos": [
      "build/custom.css"
    ]
  }
]
 