<?xml version="1.0" encoding="utf-8"?>
<!-- Generator: Adobe Illustrator 24.0.1, SVG Export Plug-In . SVG Version: 6.00 Build 0)  -->
<svg version="1.1" id="Camada_1" xmlns="http://www.w3.org/2000/svg" xmlns:xlink="http://www.w3.org/1999/xlink" x="0px" y="0px"
	 viewBox="0 0 100 100" style="enable-background:new 0 0 100 100;" xml:space="preserve">
<style type="text/css">
	.st0{fill:#AFAFAF;}
</style>
<path class="st0" d="M80.2,24.2c-6.2,0-11.2,5-11.2,11.2c0,0.8,0.6,1.4,1.4,1.4h8.4V49h-9.9c-0.1,0-0.1,0-0.2,0
	c-2.8,0.2-5.1,2.6-5.1,5.4v1.4H56v-1.4c0-0.7,0.3-1.4,0.8-1.9c0.5-0.5,1.2-0.8,1.9-0.8c0.8,0,1.4-0.6,1.4-1.4c0-0.8-0.6-1.4-1.4-1.4
	c-3,0-5.4,2.4-5.4,5.4v17.1c0,0,0,0.1,0,0.1c-1.2,0.8-2.3,1.4-4.5,1.4c-2.3,0-3.4-0.7-4.7-1.5c-1.4-0.9-3-1.9-6.1-1.9
	c-3.1,0-4.7,1-6.1,1.9c-1.3,0.8-2.4,1.5-4.7,1.5c-2.3,0-3.4-0.7-4.7-1.5c-1.4-0.9-3-1.9-6.1-1.9c-0.8,0-1.4,0.6-1.4,1.4
	s0.6,1.4,1.4,1.4c2.3,0,3.4,0.7,4.7,1.5c1.4,0.9,3,1.9,6.1,1.9s4.7-1,6.1-1.9c1.3-0.8,2.4-1.5,4.7-1.5s3.4,0.7,4.7,1.5
	c1.4,0.9,3,1.9,6.1,1.9c3.1,0,4.7-1,6.1-1.9c1.3-0.8,2.4-1.5,4.7-1.5c2.3,0,3.4,0.7,4.7,1.5c1.4,0.9,3,1.9,6.1,1.9
	c3.1,0,4.7-1,6.1-1.9c1.3-0.8,2.4-1.5,4.7-1.5c0.8,0,1.4-0.6,1.4-1.4s-0.6-1.4-1.4-1.4c-3.1,0-4.7,1-6.1,1.9
	c-1.3,0.8-2.4,1.5-4.7,1.5c-2,0-3.1-0.5-4.2-1.2c0-0.1,0-0.1,0-0.2V54.5c0-1.5,1.2-2.7,2.7-2.7h19.8c0.8,0,1.4-0.6,1.4-1.4
	c0-0.8-0.6-1.4-1.4-1.4h-7.3V36.8H90c0.8,0,1.4-0.6,1.4-1.4C91.4,29.2,86.4,24.2,80.2,24.2z M56,63.7h7.5v1.7H56V63.7z M63.5,58.6
	V61H56v-2.4H63.5z M56,70.3v-2.1h7.5v2.3c-1.2-0.5-2.6-0.8-3.9-0.7C58.1,69.7,56.9,69.9,56,70.3z M71.8,34c0.7-4.1,4.2-7.1,8.4-7.1
	c4.2,0,7.7,3,8.4,7.1H71.8z"/>
<path class="st0" d="M81.2,77.4c-3.1,0-4.7,1-6.1,1.9c-1.3,0.8-2.4,1.5-4.7,1.5s-3.4-0.7-4.7-1.5c-1.4-0.9-3-1.9-6.1-1.9
	c-3.1,0-4.7,1-6.1,1.9c-1.3,0.8-2.4,1.5-4.7,1.5c-2.3,0-3.4-0.7-4.7-1.5c-1.4-0.9-3-1.9-6.1-1.9c-3.1,0-4.7,1-6.1,1.9
	c-1.3,0.8-2.4,1.5-4.7,1.5c-2.3,0-3.4-0.7-4.7-1.5c-1.4-0.9-3-1.9-6.1-1.9c-0.8,0-1.4,0.6-1.4,1.4s0.6,1.4,1.4,1.4
	c2.3,0,3.4,0.7,4.7,1.5c1.4,0.9,3,1.9,6.1,1.9s4.7-1,6.1-1.9c1.3-0.8,2.4-1.5,4.7-1.5s3.4,0.7,4.7,1.5c1.4,0.9,3,1.9,6.1,1.9
	c3.1,0,4.7-1,6.1-1.9c1.3-0.8,2.4-1.5,4.7-1.5c2.3,0,3.4,0.7,4.7,1.5c1.4,0.9,3,1.9,6.1,1.9c3.1,0,4.7-1,6.1-1.9
	c1.3-0.8,2.4-1.5,4.7-1.5c0.8,0,1.4-0.6,1.4-1.4S82,77.4,81.2,77.4z"/>
<path class="st0" d="M81.2,85.1c-3.1,0-4.7,1-6.1,1.9c-1.3,0.8-2.4,1.5-4.7,1.5S67,87.8,65.7,87c-1.4-0.9-3-1.9-6.1-1.9
	c-3.1,0-4.7,1-6.1,1.9c-1.3,0.8-2.4,1.5-4.7,1.5c-2.3,0-3.4-0.7-4.7-1.5c-1.4-0.9-3-1.9-6.1-1.9c-3.1,0-4.7,1-6.1,1.9
	c-1.3,0.8-2.4,1.5-4.7,1.5c-2.3,0-3.4-0.7-4.7-1.5c-1.4-0.9-3-1.9-6.1-1.9c-0.8,0-1.4,0.6-1.4,1.4s0.6,1.4,1.4,1.4
	c2.3,0,3.4,0.7,4.7,1.5c1.4,0.9,3,1.9,6.1,1.9s4.7-1,6.1-1.9c1.3-0.8,2.4-1.5,4.7-1.5s3.4,0.7,4.7,1.5c1.4,0.9,3,1.9,6.1,1.9
	c3.1,0,4.7-1,6.1-1.9c1.3-0.8,2.4-1.5,4.7-1.5c2.3,0,3.4,0.7,4.7,1.5c1.4,0.9,3,1.9,6.1,1.9c3.1,0,4.7-1,6.1-1.9
	c1.3-0.8,2.4-1.5,4.7-1.5c0.8,0,1.4-0.6,1.4-1.4S82,85.1,81.2,85.1z"/>
<path class="st0" d="M11.4,44.4h38.9c0.8,0,1.4-0.6,1.4-1.4c0-0.8-0.6-1.4-1.4-1.4h-6.3V25h3.6c0.6,0,1.1-0.4,1.3-0.9
	c0.2-0.6,0-1.2-0.5-1.5L30.8,9.2c-0.5-0.4-1.2-0.4-1.7,0L11.5,22.6c-0.5,0.3-0.7,1-0.5,1.5c0.2,0.5,0.7,0.9,1.3,0.9H16v16.7h-4.6
	c-0.8,0-1.4,0.6-1.4,1.4C10,43.8,10.6,44.4,11.4,44.4z M32,41.7h-4.1v-6.3H32V41.7z M29.9,12l13.6,10.3H16.4L29.9,12z M18.7,25h22.5
	v16.7h-6.5v-7.6c0-0.8-0.6-1.4-1.4-1.4h-6.8c-0.8,0-1.4,0.6-1.3,1.4v7.6h-6.5V25z"/>
<path class="st0" d="M50.7,49.6c0.8,0,1.4-0.6,1.4-1.4c0-0.8-0.6-1.4-1.4-1.4H11.2c-0.8,0-1.4,0.6-1.4,1.4c0,0.8,0.6,1.4,1.4,1.4
	H50.7z"/>
</svg>
