<?xml version="1.0" encoding="utf-8"?>
<!-- Generator: Adobe Illustrator 24.0.1, SVG Export Plug-In . SVG Version: 6.00 Build 0)  -->
<svg version="1.1" id="Camada_1" xmlns="http://www.w3.org/2000/svg" xmlns:xlink="http://www.w3.org/1999/xlink" x="0px" y="0px"
	 viewBox="0 0 100 100" style="enable-background:new 0 0 100 100;" xml:space="preserve">
<style type="text/css">
	.st0{fill:#AFAFAF;}
</style>
<g>
	<path class="st0" d="M10.6,85.1v3.4c0,1.1,0.9,2,2,2h74.6c1.1,0,2-0.9,2-2v-3.4c0-2.2-1.8-4.1-4.1-4.1V44.2
		c0.8-0.5,1.4-1.4,1.4-2.3v-8.1c0-1.5-1.2-2.7-2.7-2.7H66c0.2-0.4,0.2-0.9,0.3-1.4v-1.6c1,0.4,2.1,0.3,3.1-0.1
		c1-0.5,1.7-1.3,2.1-2.3h3c1.5,0,2.7-1.2,2.7-2.7v-2.7c0-1.5-1.2-2.7-2.7-2.7h-3c-0.6-1.6-2.1-2.7-3.8-2.7c-0.5,0-0.9,0.1-1.4,0.2
		v-1.6c0-2.2-1.8-4.1-4.1-4.1c-2.2,0-4.1,1.8-4.1,4.1v4.1H41.9v-4.1c0-2.2-1.8-4.1-4.1-4.1c-2.2,0-4.1,1.8-4.1,4.1v1.6
		c-0.4-0.2-0.9-0.2-1.4-0.2c-1.7,0-3.3,1.1-3.8,2.7h-3c-1.5,0-2.7,1.2-2.7,2.7V23c0,1.5,1.2,2.7,2.7,2.7h3c0.6,1.6,2.1,2.7,3.8,2.7
		c0.5,0,0.9-0.1,1.4-0.2v1.6c0,0.5,0.1,0.9,0.3,1.4H16.1c-1.5,0-2.7,1.2-2.7,2.7v8.1c0,1,0.5,1.8,1.4,2.3v36.9
		C12.5,81.1,10.6,82.9,10.6,85.1z M71.7,20.3h2.7V23h-2.7V20.3z M66.3,18.9c0-0.7,0.6-1.4,1.4-1.4c0.7,0,1.4,0.6,1.4,1.4v5.4
		c0,0.7-0.6,1.4-1.4,1.4c-0.7,0-1.4-0.6-1.4-1.4V18.9z M28.3,23h-2.7v-2.7h2.7V23z M33.7,24.3c0,0.7-0.6,1.4-1.4,1.4
		c-0.7,0-1.4-0.6-1.4-1.4v-5.4c0-0.7,0.6-1.4,1.4-1.4c0.7,0,1.4,0.6,1.4,1.4V24.3z M60.9,24.3V13.5c0-0.7,0.6-1.4,1.4-1.4
		c0.7,0,1.4,0.6,1.4,1.4v16.2c0,0.7-0.6,1.4-1.4,1.4c-0.7,0-1.4-0.6-1.4-1.4V24.3z M41.9,20.3h16.3V23H41.9V20.3z M41.9,29.7v-4.1
		h16.3v4.1c0,0.5,0.1,0.9,0.2,1.4H41.6C41.8,30.7,41.9,30.2,41.9,29.7z M36.4,24.3V13.5c0-0.7,0.6-1.4,1.4-1.4
		c0.7,0,1.4,0.6,1.4,1.4v16.2c0,0.7-0.6,1.4-1.4,1.4c-0.7,0-1.4-0.6-1.4-1.4V24.3z M16.1,39.2h50.2c0.7,0,1.4-0.6,1.4-1.4
		c0-0.7-0.6-1.4-1.4-1.4H16.1v-2.7h67.9l0,2.7H73.1c-0.7,0-1.4,0.6-1.4,1.4c0,0.7,0.6,1.4,1.4,1.4h10.9l0,2.7H16.1V39.2z M40.5,54.1
		H24.2c-1.5,0-2.7,1.2-2.7,2.7v24.3h-4.1V44.6h65.1v36.5H43.2V56.8C43.2,55.3,42,54.1,40.5,54.1z M35.1,66.2h-1.4v-9.5h6.8v24.3
		h-6.8V68.9h1.4c0.7,0,1.4-0.6,1.4-1.4C36.4,66.8,35.8,66.2,35.1,66.2z M29.6,68.9H31v12.2h-6.8V56.8H31v9.5h-1.4
		c-0.7,0-1.4,0.6-1.4,1.4C28.3,68.3,28.9,68.9,29.6,68.9z M16.1,83.8h69.2c0.7,0,1.4,0.6,1.4,1.4v2.7H13.4v-2.7
		c0-0.7,0.6-1.4,1.4-1.4H16.1z"/>
	<path class="st0" d="M48.6,78.4h29.9c0.7,0,1.4-0.6,1.4-1.4c0-0.7-0.6-1.4-1.4-1.4V56.8c0-1.5-1.2-2.7-2.7-2.7H51.4
		c-1.5,0-2.7,1.2-2.7,2.7v18.9c-0.7,0-1.4,0.6-1.4,1.4C47.3,77.8,47.9,78.4,48.6,78.4z M51.4,73.8l2.3-2.1c0.4-0.3,0.5-0.8,0.4-1.3
		c-0.1-0.5-0.5-0.8-0.9-1c-0.5-0.1-1,0-1.3,0.3l-0.4,0.4V56.8h14.1l-9.6,9.2c-0.5,0.5-0.6,1.4,0,1.9c0.5,0.5,1.4,0.6,1.9,0
		l11.6-11.1h6.4v0.8l-5,4.8c-0.5,0.5-0.6,1.4,0,1.9c0.5,0.5,1.4,0.6,1.9,0l3.1-3v14.4H60.3l8.2-7.6c0.4-0.3,0.5-0.8,0.4-1.3
		c-0.1-0.5-0.5-0.8-0.9-1s-1,0-1.3,0.3l-10.4,9.6h-5V73.8z"/>
</g>
</svg>
