<?xml version="1.0" encoding="utf-8"?>
<!-- Generator: Adobe Illustrator 24.0.1, SVG Export Plug-In . SVG Version: 6.00 Build 0)  -->
<svg version="1.1" id="Camada_1" xmlns="http://www.w3.org/2000/svg" xmlns:xlink="http://www.w3.org/1999/xlink" x="0px" y="0px"
	 viewBox="0 0 100 100" style="enable-background:new 0 0 100 100;" xml:space="preserve">
<style type="text/css">
	.st0{fill:#AFAFAF;}
</style>
<g>
	<g>
		<path class="st0" d="M83.9,74.6l-6.3-6.3c-0.1-0.1-0.1-0.1-0.2-0.1h-2.9c-0.1,0-0.1,0-0.2-0.1L60.3,54c0-0.1,0-0.1,0-0.2
			c0-0.9-0.3-1.7-1-2.3L58,50.2c-0.1-0.1-0.1-0.3,0-0.4l1.3-1.3c0.7-0.7,1-1.5,1-2.4c0-0.1,0-0.1,0.1-0.2l2.2-2.2
			c0.1-0.1,0.1-0.3,0-0.4l-1.2-1.2c-0.1-0.1-0.3-0.1-0.4,0l-0.1,0.1c-0.8,0.8-2.2,0.8-3,0l0,0c-0.8-0.8-0.8-2.2,0-3l10-10
			c0.8-0.8,2.2-0.8,3,0l0,0c0.8,0.8,0.8,2.2,0,3L63.1,40c-0.1,0.1-0.1,0.3,0,0.4l1.2,1.2c0.1,0.1,0.3,0.1,0.4,0l9.7-9.7
			c0.1-0.1,0.1-0.1,0.2-0.1h2.9c0.1,0,0.1,0,0.2-0.1l6.2-6.2c1.4-1.4,1.4-3.7,0-5.1L79.4,16c-1.3-1.3-3.4-1.3-4.7,0l-6.4,6.4
			c-0.1,0.1-0.1,0.1-0.1,0.2v2.9c0,0.1,0,0.1-0.1,0.2l-14,14c-0.1,0.1-0.1,0.1-0.2,0.1c-0.9,0-1.7,0.3-2.4,1L50.2,42
			c-0.1,0.1-0.3,0.1-0.4,0l-1.3-1.3c-0.7-0.7-1.5-1-2.4-1c-0.1,0-0.1,0-0.2-0.1l-14-14c-0.1-0.1-0.1-0.1-0.1-0.2v-2.9
			c0-0.1,0-0.1-0.1-0.2L25.3,16c-1.3-1.3-3.4-1.3-4.7,0l-4.4,4.4c-1.4,1.4-1.4,3.7,0,5.1l6.2,6.2c0.1,0.1,0.1,0.1,0.2,0.1h2.9
			c0.1,0,0.1,0,0.2,0.1l14,14c0.1,0.1,0.1,0.1,0.1,0.2c0,0.9,0.3,1.7,1,2.4l1.3,1.3c0.1,0.1,0.1,0.3,0,0.4l-1.3,1.3
			c-0.6,0.6-1,1.5-1,2.3c0,0.1,0,0.1,0,0.2L25.7,68.1c-0.1,0.1-0.1,0.1-0.2,0.1h-2.9c-0.1,0-0.1,0-0.2,0.1l-6.2,6.2
			c-1.4,1.4-1.4,3.7,0,5.1l4.3,4.3c0.5,0.5,1.2,1,1.9,1.1c1.1,0.2,2.1-0.2,2.9-0.9l6.4-6.4c0.1-0.1,0.1-0.1,0.1-0.2v-2.9
			c0-0.1,0-0.1,0.1-0.2L46,60.3c0.1,0,0.1,0,0.2,0c0.8,0,1.7-0.3,2.3-1l1.3-1.3c0.1-0.1,0.3-0.1,0.4,0l1.3,1.3c0.6,0.6,1.5,1,2.3,1
			c0.1,0,0.1,0,0.2,0l14.1,14.1c0.1,0.1,0.1,0.1,0.1,0.2v2.9c0,0.1,0,0.1,0.1,0.2l6.3,6.3c0.5,0.5,1.2,1,1.9,1.1
			c1.1,0.2,2.1-0.2,2.9-0.9l4.6-4.6c0.8-0.8,1.1-1.8,0.9-2.9C84.8,75.8,84.4,75.1,83.9,74.6z M71.2,22.7l3.2-3.2
			c1.4-1.4,3.7-1.4,5.2,0l1,1c1.4,1.4,1.4,3.7,0,5.2l-3.2,3.2c-0.5,0.5-1.2,0.8-1.8,0.8h0c-0.7,0-1.4-0.3-1.8-0.8l-2.5-2.5
			c-0.5-0.5-0.8-1.2-0.8-1.8v0C70.4,23.8,70.7,23.1,71.2,22.7z M22.7,28.8l-3.2-3.2c-1.4-1.4-1.4-3.7,0-5.2l1-1
			c1.4-1.4,3.7-1.4,5.2,0l3.2,3.2c0.5,0.5,0.8,1.2,0.8,1.8v0c0,0.7-0.3,1.4-0.8,1.8l-2.5,2.5c-0.5,0.5-1.2,0.8-1.8,0.8h0
			C23.8,29.6,23.1,29.3,22.7,28.8z M29.2,29.2L29.2,29.2c0.8-0.8,2.2-0.8,3,0l10,10c0.8,0.8,0.8,2.2,0,3l0,0c-0.8,0.8-2.2,0.8-3,0
			l-10-10C28.3,31.4,28.3,30,29.2,29.2z M28.8,77.3l-3.2,3.2c-1.4,1.4-3.8,1.4-5.2,0l-1-1c-1.4-1.4-1.4-3.7,0-5.2l3.2-3.2
			c0.5-0.5,1.2-0.8,1.8-0.8h0c0.7,0,1.4,0.3,1.8,0.8l2.5,2.5c0.5,0.5,0.8,1.2,0.8,1.8l0,0C29.6,76.2,29.3,76.9,28.8,77.3z
			 M29.2,70.8L29.2,70.8c-0.8-0.8-0.8-2.2,0-3l10-10c0.8-0.8,2.2-0.8,3,0h0c0.8,0.8,0.8,2.2,0,3l-10,10C31.4,71.7,30,71.7,29.2,70.8
			z M52.9,57.5L50,54.6l0,0l0,0l-2.9,2.9c-0.5,0.5-1.4,0.5-1.9,0l-2.9-2.9c-0.2-0.2-0.3-0.5-0.3-0.7c0-0.3,0.1-0.5,0.3-0.7l3.1-3.1
			l0,0l0,0l-2.9-2.9c-0.5-0.5-0.5-1.4,0-1.9l2.7-2.7c0.5-0.5,1.4-0.5,1.9,0l2.9,2.9l0,0l0,0l2.9-2.9c0.5-0.5,1.4-0.5,1.9,0l2.7,2.7
			c0.5,0.5,0.5,1.4,0,1.9L54.6,50l0,0l0,0l3.1,3.1c0.2,0.2,0.3,0.5,0.3,0.7c0,0.3-0.1,0.5-0.3,0.7l-2.9,2.9
			C54.3,58,53.4,58,52.9,57.5z M57.8,57.8L57.8,57.8c0.8-0.8,2.2-0.8,3,0l10,10c0.8,0.8,0.8,2.2,0,3h0c-0.8,0.8-2.2,0.8-3,0l-10-10
			C56.9,60,56.9,58.6,57.8,57.8z M80.6,79.6l-1,1c-1.4,1.4-3.8,1.4-5.2,0l-3.2-3.2c-0.5-0.5-0.8-1.2-0.8-1.8l0,0
			c0-0.7,0.3-1.4,0.8-1.8l2.5-2.5c0.5-0.5,1.2-0.8,1.8-0.8l0,0c0.7,0,1.4,0.3,1.8,0.8l3.2,3.2C82,75.9,82,78.2,80.6,79.6z"/>
	</g>
</g>
</svg>
